This is BibTeX, Version 0.99dThe top-level auxiliary file: GainsVsLevels_AppliedLunch_May2017.aux
A level-1 auxiliary file: RegKarthik_Pooled.aux
A level-1 auxiliary file: RegKarthik.aux
A level-1 auxiliary file: RegKarthik_HHControls.aux
A level-1 auxiliary file: RegKarthik_HHControls_EYOS.aux
A level-1 auxiliary file: RegTeacherAbs_Pooled.aux
A level-1 auxiliary file: RegUnObs.aux
A level-1 auxiliary file: RegObservationsIndex.aux
A level-1 auxiliary file: RegBehavior_Student.aux
The style file: apacite.bst
Database file #1: TanBib.bib
apacite.bst [2013/07/21 v6.03 APA bibliography style]
