\beamer@sectionintoc {1}{Introduction}{2}{0}{1}
\beamer@sectionintoc {2}{Interventions}{13}{0}{2}
\beamer@sectionintoc {3}{Design, data and validity}{17}{0}{3}
\beamer@sectionintoc {4}{Test score results}{20}{0}{4}
\beamer@sectionintoc {5}{So what happened? (i.e., Mechanisms)}{27}{0}{5}
\beamer@sectionintoc {6}{Extra slides}{37}{0}{6}
\contentsline {section}{}
