This is BibTeX, Version 0.99dThe top-level auxiliary file: GainsVsLevels_GSRS_112015.aux
The style file: apacite.bst
Database file #1: TanBib.bib
apacite.bst [2013/07/21 v6.03 APA bibliography style]
Too many commas in name 1 of "Bettinger, E.P., \& Long, B" for entry BettingerForthcoming
while executing---line 5062 of file apacite.bst
Too many commas in name 1 of "Bettinger, E.P., \& Long, B" for entry BettingerForthcoming
while executing---line 5066 of file apacite.bst
Too many commas in name 1 of "Bettinger, E.P., \& Long, B" for entry BettingerForthcoming
while executing---line 5066 of file apacite.bst
Too many commas in name 1 of "Bettinger, E.P., \& Long, B" for entry BettingerForthcoming
while executing---line 5068 of file apacite.bst
Too many commas in name 1 of "Bettinger, E.P., \& Long, B" for entry BettingerForthcoming
while executing---line 5068 of file apacite.bst
Too many commas in name 1 of "Bettinger, E.P., \& Long, B" for entry BettingerForthcoming
while executing---line 5072 of file apacite.bst
Too many commas in name 1 of "Bettinger, E.P., \& Long, B" for entry BettingerForthcoming
while executing---line 5075 of file apacite.bst
Too many commas in name 1 of "Bettinger, E.P., \& Long, B" for entry BettingerForthcoming
while executing---line 5076 of file apacite.bst
Too many commas in name 1 of "Bettinger, E.P., \& Long, B" for entry BettingerForthcoming
while executing---line 5079 of file apacite.bst
Too many commas in name 1 of "Bettinger, E.P., \& Long, B" for entry BettingerForthcoming
while executing---line 5079 of file apacite.bst
Too many commas in name 1 of "Bettinger, E.P., \& Long, B" for entry BettingerForthcoming
while executing---line 5079 of file apacite.bst
(There were 11 error messages)
