\relax 
\providecommand\hyper@newdestlabel[2]{}
\providecommand\HyperFirstAtBeginDocument{\AtBeginDocument}
\HyperFirstAtBeginDocument{\ifx\hyper@anchor\@undefined
\global\let\oldcontentsline\contentsline
\gdef\contentsline#1#2#3#4{\oldcontentsline{#1}{#2}{#3}}
\global\let\oldnewlabel\newlabel
\gdef\newlabel#1#2{\newlabelxx{#1}#2}
\gdef\newlabelxx#1#2#3#4#5#6{\oldnewlabel{#1}{{#2}{#3}}}
\AtEndDocument{\ifx\hyper@anchor\@undefined
\let\contentsline\oldcontentsline
\let\newlabel\oldnewlabel
\fi}
\fi}
\global\let\hyper@last\relax 
\gdef\HyperFirstAtBeginDocument#1{#1}
\providecommand\HyField@AuxAddToFields[1]{}
\providecommand\HyField@AuxAddToCoFields[2]{}
\providecommand \oddpage@label [2]{}
\@writefile{toc}{\beamer@endinputifotherversion {3.36pt}}
\@writefile{nav}{\beamer@endinputifotherversion {3.36pt}}
\@writefile{nav}{\headcommand {\slideentry {0}{0}{1}{1/1}{}{0}}}
\@writefile{nav}{\headcommand {\beamer@framepages {1}{1}}}
\@writefile{nav}{\headcommand {\slideentry {0}{0}{2}{2/2}{}{0}}}
\@writefile{nav}{\headcommand {\beamer@framepages {2}{2}}}
\@writefile{nav}{\headcommand {\slideentry {0}{0}{3}{3/3}{}{0}}}
\@writefile{nav}{\headcommand {\beamer@framepages {3}{3}}}
\@writefile{nav}{\headcommand {\slideentry {0}{0}{4}{4/6}{}{0}}}
\@writefile{nav}{\headcommand {\beamer@framepages {4}{6}}}
\citation{BettingerForthcoming}
\citation{Kane2008}
\citation{Woessmann2011}
\citation{Glewwe2010}
\citation{Lavy2002}
\citation{Lavy2009}
\citation{Muralidharan2011}
\citation{Balch2015}
\citation{Goldhaber2012}
\citation{Goodman2013}
\citation{Springer2011}
\citation{BettingerForthcoming}
\citation{Kane2008}
\citation{Woessmann2011}
\citation{Glewwe2010}
\citation{Lavy2002}
\citation{Lavy2009}
\citation{Muralidharan2011}
\citation{Balch2015}
\citation{Goldhaber2012}
\citation{Goodman2013}
\citation{Springer2011}
\citation{BettingerForthcoming}
\citation{Kane2008}
\citation{Woessmann2011}
\citation{Glewwe2010}
\citation{Lavy2002}
\citation{Lavy2009}
\citation{Muralidharan2011}
\citation{Balch2015}
\citation{Goldhaber2012}
\citation{Goodman2013}
\citation{Springer2011}
\citation{BettingerForthcoming}
\citation{Kane2008}
\citation{Woessmann2011}
\citation{Glewwe2010}
\citation{Lavy2002}
\citation{Lavy2009}
\citation{Muralidharan2011}
\citation{Balch2015}
\citation{Goldhaber2012}
\citation{Goodman2013}
\citation{Springer2011}
\citation{BettingerForthcoming}
\citation{Kane2008}
\citation{Woessmann2011}
\citation{Glewwe2010}
\citation{Lavy2002}
\citation{Lavy2009}
\citation{Muralidharan2011}
\citation{Balch2015}
\citation{Goldhaber2012}
\citation{Goodman2013}
\citation{Springer2011}
\citation{BettingerForthcoming}
\citation{Kane2008}
\citation{Woessmann2011}
\citation{Glewwe2010}
\citation{Lavy2002}
\citation{Lavy2009}
\citation{Muralidharan2011}
\citation{Balch2015}
\citation{Goldhaber2012}
\citation{Goodman2013}
\citation{Springer2011}
\citation{BettingerForthcoming}
\citation{Kane2008}
\citation{Woessmann2011}
\citation{Glewwe2010}
\citation{Lavy2002}
\citation{Lavy2009}
\citation{Muralidharan2011}
\citation{Balch2015}
\citation{Goldhaber2012}
\citation{Goodman2013}
\citation{Springer2011}
\@writefile{nav}{\headcommand {\slideentry {0}{0}{5}{7/13}{}{0}}}
\@writefile{nav}{\headcommand {\beamer@framepages {7}{13}}}
\@writefile{nav}{\headcommand {\slideentry {0}{0}{6}{14/18}{}{0}}}
\@writefile{nav}{\headcommand {\beamer@framepages {14}{18}}}
\@writefile{nav}{\headcommand {\slideentry {0}{0}{7}{19/19}{}{0}}}
\@writefile{nav}{\headcommand {\beamer@framepages {19}{19}}}
\newlabel{tab:skills}{{1}{20}{}{Doc-Start}{}}
\@writefile{snm}{\beamer@slide {tab:skills}{20}}
\@writefile{nav}{\headcommand {\slideentry {0}{0}{8}{20/20}{}{0}}}
\@writefile{nav}{\headcommand {\beamer@framepages {20}{20}}}
\citation{Barlevy2012}
\@writefile{nav}{\headcommand {\slideentry {0}{0}{9}{21/21}{}{0}}}
\@writefile{nav}{\headcommand {\beamer@framepages {21}{21}}}
\newlabel{fig:mapa}{{1}{22}{}{Doc-Start}{}}
\@writefile{snm}{\beamer@slide {fig:mapa}{22}}
\@writefile{nav}{\headcommand {\slideentry {0}{0}{10}{22/22}{}{0}}}
\@writefile{nav}{\headcommand {\beamer@framepages {22}{22}}}
\citation{Mbiti}
\@writefile{nav}{\headcommand {\slideentry {0}{0}{11}{23/23}{}{0}}}
\@writefile{nav}{\headcommand {\beamer@framepages {23}{23}}}
\newlabel{tab:addlabel}{{2}{24}{}{Doc-Start}{}}
\@writefile{snm}{\beamer@slide {tab:addlabel}{24}}
\@writefile{nav}{\headcommand {\slideentry {0}{0}{12}{24/24}{}{0}}}
\@writefile{nav}{\headcommand {\beamer@framepages {24}{24}}}
\newlabel{balance<1>}{{13}{25}{}{Doc-Start}{}}
\@writefile{snm}{\beamer@slide {balance<1>}{25}}
\newlabel{balance}{{13}{25}{}{Doc-Start}{}}
\@writefile{snm}{\beamer@slide {balance}{25}}
\@writefile{nav}{\headcommand {\slideentry {0}{0}{13}{25/25}{}{0}}}
\@writefile{nav}{\headcommand {\beamer@framepages {25}{25}}}
\newlabel{balance<1>}{{14}{26}{}{Doc-Start}{}}
\@writefile{snm}{\beamer@slide {balance<1>}{26}}
\newlabel{balance}{{14}{26}{}{Doc-Start}{}}
\@writefile{snm}{\beamer@slide {balance}{26}}
\@writefile{nav}{\headcommand {\slideentry {0}{0}{14}{26/26}{}{0}}}
\@writefile{nav}{\headcommand {\beamer@framepages {26}{26}}}
\newlabel{balance<1>}{{15}{27}{}{Doc-Start}{}}
\@writefile{snm}{\beamer@slide {balance<1>}{27}}
\newlabel{balance}{{15}{27}{}{Doc-Start}{}}
\@writefile{snm}{\beamer@slide {balance}{27}}
\@writefile{nav}{\headcommand {\slideentry {0}{0}{15}{27/27}{}{0}}}
\@writefile{nav}{\headcommand {\beamer@framepages {27}{27}}}
\newlabel{balance<1>}{{16}{28}{}{Doc-Start}{}}
\@writefile{snm}{\beamer@slide {balance<1>}{28}}
\newlabel{balance}{{16}{28}{}{Doc-Start}{}}
\@writefile{snm}{\beamer@slide {balance}{28}}
\@writefile{nav}{\headcommand {\slideentry {0}{0}{16}{28/28}{}{0}}}
\@writefile{nav}{\headcommand {\beamer@framepages {28}{28}}}
\bibstyle{apacite}
\bibdata{TanBib}
\bibcite{Balch2015}{\citeauthoryear {Balch\ \BBA{} Springer}{Balch\ \BBA{} Springer}{{\APACyear {2015}}}}
\APACbibcite{Balch2015}{\citeauthoryear {Balch\ \BBA{} Springer}{Balch\ \BBA{} Springer}{{\APACyear {2015}}}}
\bibcite{Barlevy2012}{\citeauthoryear {Barlevy\ \BBA{} Neal}{Barlevy\ \BBA{} Neal}{{\APACyear {2012}}}}
\APACbibcite{Barlevy2012}{\citeauthoryear {Barlevy\ \BBA{} Neal}{Barlevy\ \BBA{} Neal}{{\APACyear {2012}}}}
\bibcite{BettingerForthcoming}{\citeauthoryear {Bettinger}{Bettinger}{{\APACyear {{\BIP {}}}}}}
\APACbibcite{BettingerForthcoming}{\citeauthoryear {Bettinger}{Bettinger}{{\APACyear {{\BIP {}}}}}}
\bibcite{Glewwe2010}{\citeauthoryear {Glewwe, Ilias,{}\ \BBA{} Kremer}{Glewwe\ \BOthers {.}}{{\APACyear {2010}}}}
\APACbibcite{Glewwe2010}{\citeauthoryear {Glewwe, Ilias,{}\ \BBA{} Kremer}{Glewwe\ \BOthers {.}}{{\APACyear {2010}}}}
\bibcite{Goldhaber2012}{\citeauthoryear {Goldhaber\ \BBA{} Walch}{Goldhaber\ \BBA{} Walch}{{\APACyear {2012}}}}
\APACbibcite{Goldhaber2012}{\citeauthoryear {Goldhaber\ \BBA{} Walch}{Goldhaber\ \BBA{} Walch}{{\APACyear {2012}}}}
\bibcite{Goodman2013}{\citeauthoryear {Goodman\ \BBA{} Turner}{Goodman\ \BBA{} Turner}{{\APACyear {2013}}}}
\APACbibcite{Goodman2013}{\citeauthoryear {Goodman\ \BBA{} Turner}{Goodman\ \BBA{} Turner}{{\APACyear {2013}}}}
\bibcite{Kane2008}{\citeauthoryear {Kane, Rockoff,{}\ \BBA{} Staiger}{Kane\ \BOthers {.}}{{\APACyear {2008}}}}
\APACbibcite{Kane2008}{\citeauthoryear {Kane, Rockoff,{}\ \BBA{} Staiger}{Kane\ \BOthers {.}}{{\APACyear {2008}}}}
\bibcite{Lavy2002}{\citeauthoryear {Lavy}{Lavy}{{\APACyear {2002}}}}
\APACbibcite{Lavy2002}{\citeauthoryear {Lavy}{Lavy}{{\APACyear {2002}}}}
\bibcite{Lavy2009}{\citeauthoryear {Lavy}{Lavy}{{\APACyear {2009}}}}
\APACbibcite{Lavy2009}{\citeauthoryear {Lavy}{Lavy}{{\APACyear {2009}}}}
\bibcite{Mbiti}{\citeauthoryear {Mbiti\ \BBA{} Muralidharan}{Mbiti\ \BBA{} Muralidharan}{{\APACyear {{\bibnodate {}}}}}}
\APACbibcite{Mbiti}{\citeauthoryear {Mbiti\ \BBA{} Muralidharan}{Mbiti\ \BBA{} Muralidharan}{{\APACyear {{\bibnodate {}}}}}}
\bibcite{Muralidharan2011}{\citeauthoryear {Muralidharan\ \BBA{} Sundararaman}{Muralidharan\ \BBA{} Sundararaman}{{\APACyear {2011}}}}
\APACbibcite{Muralidharan2011}{\citeauthoryear {Muralidharan\ \BBA{} Sundararaman}{Muralidharan\ \BBA{} Sundararaman}{{\APACyear {2011}}}}
\bibcite{Springer2011}{\citeauthoryear {Springer\ \BOthers {.}}{Springer\ \BOthers {.}}{{\APACyear {2011}}}}
\APACbibcite{Springer2011}{\citeauthoryear {Springer\ \BOthers {.}}{Springer\ \BOthers {.}}{{\APACyear {2011}}}}
\bibcite{Woessmann2011}{\citeauthoryear {Woessmann}{Woessmann}{{\APACyear {2011}}}}
\APACbibcite{Woessmann2011}{\citeauthoryear {Woessmann}{Woessmann}{{\APACyear {2011}}}}
\@writefile{nav}{\headcommand {\sectionentry {1}{}{29}{}{0}}}
\@writefile{nav}{\headcommand {\beamer@sectionpages {1}{28}}}
\@writefile{nav}{\headcommand {\beamer@subsectionpages {1}{28}}}
\@writefile{toc}{\contentsline {section}{}}
\@writefile{nav}{\headcommand {\slideentry {1}{0}{0}{29/29}{}{0}}}
\@writefile{nav}{\headcommand {\beamer@framepages {29}{29}}}
\@writefile{nav}{\headcommand {\slideentry {1}{0}{0}{29/30}{}{0}}}
\@writefile{nav}{\headcommand {\beamer@framepages {29}{30}}}
\@writefile{nav}{\headcommand {\slideentry {1}{0}{0}{29/31}{}{0}}}
\@writefile{nav}{\headcommand {\beamer@framepages {29}{31}}}
\@writefile{nav}{\headcommand {\slideentry {1}{0}{0}{29/32}{}{0}}}
\@writefile{nav}{\headcommand {\beamer@framepages {29}{32}}}
\@writefile{nav}{\headcommand {\slideentry {1}{0}{0}{29/33}{}{0}}}
\@writefile{nav}{\headcommand {\beamer@framepages {29}{33}}}
\newlabel{extrapower<1>}{{22}{34}{}{Doc-Start}{}}
\@writefile{snm}{\beamer@slide {extrapower<1>}{34}}
\newlabel{extrapower}{{22}{34}{}{Doc-Start}{}}
\@writefile{snm}{\beamer@slide {extrapower}{34}}
\newlabel{tab:addlabel}{{3}{34}{}{Doc-Start}{}}
\@writefile{snm}{\beamer@slide {tab:addlabel}{34}}
\@writefile{nav}{\headcommand {\slideentry {1}{0}{1}{34/34}{}{0}}}
\@writefile{nav}{\headcommand {\beamer@framepages {34}{34}}}
\newlabel{balance_student<1>}{{23}{35}{}{Doc-Start}{}}
\@writefile{snm}{\beamer@slide {balance_student<1>}{35}}
\newlabel{balance_student}{{23}{35}{}{Doc-Start}{}}
\@writefile{snm}{\beamer@slide {balance_student}{35}}
\@writefile{nav}{\headcommand {\slideentry {1}{0}{2}{35/35}{}{0}}}
\@writefile{nav}{\headcommand {\beamer@framepages {35}{35}}}
\newlabel{balance_school<1>}{{24}{36}{}{Doc-Start}{}}
\@writefile{snm}{\beamer@slide {balance_school<1>}{36}}
\newlabel{balance_school}{{24}{36}{}{Doc-Start}{}}
\@writefile{snm}{\beamer@slide {balance_school}{36}}
\@writefile{nav}{\headcommand {\slideentry {1}{0}{3}{36/36}{}{0}}}
\@writefile{nav}{\headcommand {\beamer@framepages {36}{36}}}
\newlabel{balance_teacher<1>}{{25}{37}{}{Doc-Start}{}}
\@writefile{snm}{\beamer@slide {balance_teacher<1>}{37}}
\newlabel{balance_teacher}{{25}{37}{}{Doc-Start}{}}
\@writefile{snm}{\beamer@slide {balance_teacher}{37}}
\@writefile{nav}{\headcommand {\slideentry {1}{0}{4}{37/37}{}{0}}}
\@writefile{nav}{\headcommand {\beamer@framepages {37}{37}}}
\@writefile{nav}{\headcommand {\beamer@partpages {1}{37}}}
\@writefile{nav}{\headcommand {\beamer@subsectionpages {1}{37}}}
\@writefile{nav}{\headcommand {\beamer@sectionpages {1}{37}}}
\@writefile{nav}{\headcommand {\beamer@documentpages {37}}}
\@writefile{nav}{\headcommand {\def \inserttotalframenumber {25}}}
