\beamer@endinputifotherversion {3.36pt}
\headcommand {\slideentry {0}{0}{1}{1/1}{}{0}}
\headcommand {\beamer@framepages {1}{1}}
\headcommand {\slideentry {0}{0}{2}{2/2}{}{0}}
\headcommand {\beamer@framepages {2}{2}}
\headcommand {\slideentry {0}{0}{3}{3/3}{}{0}}
\headcommand {\beamer@framepages {3}{3}}
\headcommand {\slideentry {0}{0}{4}{4/6}{}{0}}
\headcommand {\beamer@framepages {4}{6}}
\headcommand {\slideentry {0}{0}{5}{7/13}{}{0}}
\headcommand {\beamer@framepages {7}{13}}
\headcommand {\slideentry {0}{0}{6}{14/18}{}{0}}
\headcommand {\beamer@framepages {14}{18}}
\headcommand {\slideentry {0}{0}{7}{19/19}{}{0}}
\headcommand {\beamer@framepages {19}{19}}
\headcommand {\slideentry {0}{0}{8}{20/20}{}{0}}
\headcommand {\beamer@framepages {20}{20}}
\headcommand {\slideentry {0}{0}{9}{21/21}{}{0}}
\headcommand {\beamer@framepages {21}{21}}
\headcommand {\slideentry {0}{0}{10}{22/22}{}{0}}
\headcommand {\beamer@framepages {22}{22}}
\headcommand {\slideentry {0}{0}{11}{23/23}{}{0}}
\headcommand {\beamer@framepages {23}{23}}
\headcommand {\slideentry {0}{0}{12}{24/24}{}{0}}
\headcommand {\beamer@framepages {24}{24}}
\headcommand {\slideentry {0}{0}{13}{25/25}{}{0}}
\headcommand {\beamer@framepages {25}{25}}
\headcommand {\slideentry {0}{0}{14}{26/26}{}{0}}
\headcommand {\beamer@framepages {26}{26}}
\headcommand {\slideentry {0}{0}{15}{27/27}{}{0}}
\headcommand {\beamer@framepages {27}{27}}
\headcommand {\slideentry {0}{0}{16}{28/28}{}{0}}
\headcommand {\beamer@framepages {28}{28}}
\headcommand {\sectionentry {1}{}{29}{}{0}}
\headcommand {\beamer@sectionpages {1}{28}}
\headcommand {\beamer@subsectionpages {1}{28}}
\headcommand {\slideentry {1}{0}{0}{29/29}{}{0}}
\headcommand {\beamer@framepages {29}{29}}
\headcommand {\slideentry {1}{0}{0}{29/30}{}{0}}
\headcommand {\beamer@framepages {29}{30}}
\headcommand {\slideentry {1}{0}{0}{29/31}{}{0}}
\headcommand {\beamer@framepages {29}{31}}
\headcommand {\slideentry {1}{0}{0}{29/32}{}{0}}
\headcommand {\beamer@framepages {29}{32}}
\headcommand {\slideentry {1}{0}{0}{29/33}{}{0}}
\headcommand {\beamer@framepages {29}{33}}
\headcommand {\slideentry {1}{0}{1}{34/34}{}{0}}
\headcommand {\beamer@framepages {34}{34}}
\headcommand {\slideentry {1}{0}{2}{35/35}{}{0}}
\headcommand {\beamer@framepages {35}{35}}
\headcommand {\slideentry {1}{0}{3}{36/36}{}{0}}
\headcommand {\beamer@framepages {36}{36}}
\headcommand {\slideentry {1}{0}{4}{37/37}{}{0}}
\headcommand {\beamer@framepages {37}{37}}
\headcommand {\beamer@partpages {1}{37}}
\headcommand {\beamer@subsectionpages {1}{37}}
\headcommand {\beamer@sectionpages {1}{37}}
\headcommand {\beamer@documentpages {37}}
\headcommand {\def \inserttotalframenumber {25}}
