\relax 
\providecommand\hyper@newdestlabel[2]{}
\providecommand\HyperFirstAtBeginDocument{\AtBeginDocument}
\HyperFirstAtBeginDocument{\ifx\hyper@anchor\@undefined
\global\let\oldcontentsline\contentsline
\gdef\contentsline#1#2#3#4{\oldcontentsline{#1}{#2}{#3}}
\global\let\oldnewlabel\newlabel
\gdef\newlabel#1#2{\newlabelxx{#1}#2}
\gdef\newlabelxx#1#2#3#4#5#6{\oldnewlabel{#1}{{#2}{#3}}}
\AtEndDocument{\ifx\hyper@anchor\@undefined
\let\contentsline\oldcontentsline
\let\newlabel\oldnewlabel
\fi}
\fi}
\global\let\hyper@last\relax 
\gdef\HyperFirstAtBeginDocument#1{#1}
\providecommand\HyField@AuxAddToFields[1]{}
\providecommand\HyField@AuxAddToCoFields[2]{}
\providecommand \oddpage@label [2]{}
\@writefile{nav}{\headcommand {\slideentry {0}{0}{1}{1/1}{}{0}}}
\@writefile{nav}{\headcommand {\beamer@framepages {1}{1}}}
\citation{bettinger2004}
\citation{Kane2008}
\citation{Woessmann2011}
\citation{Lavy2002}
\citation{Lavy2009}
\citation{Glewwe2010}
\citation{Muralidharan2011}
\citation{Balch2015}
\citation{Springer2011}
\citation{Goldhaber2012}
\citation{Goodman2013}
\@writefile{toc}{\beamer@sectionintoc {1}{Introduction}{2}{0}{1}}
\@writefile{nav}{\headcommand {\sectionentry {1}{Introduction}{2}{Introduction}{0}}}
\@writefile{nav}{\headcommand {\beamer@sectionpages {1}{1}}}
\@writefile{nav}{\headcommand {\beamer@subsectionpages {1}{1}}}
\citation{bettinger2004}
\citation{Kane2008}
\citation{Woessmann2011}
\citation{Lavy2002}
\citation{Lavy2009}
\citation{Glewwe2010}
\citation{Muralidharan2011}
\citation{Balch2015}
\citation{Springer2011}
\citation{Goldhaber2012}
\citation{Goodman2013}
\citation{bettinger2004}
\citation{Kane2008}
\citation{Woessmann2011}
\citation{Lavy2002}
\citation{Lavy2009}
\citation{Glewwe2010}
\citation{Muralidharan2011}
\citation{Balch2015}
\citation{Springer2011}
\citation{Goldhaber2012}
\citation{Goodman2013}
\citation{bettinger2004}
\citation{Kane2008}
\citation{Woessmann2011}
\citation{Lavy2002}
\citation{Lavy2009}
\citation{Glewwe2010}
\citation{Muralidharan2011}
\citation{Balch2015}
\citation{Springer2011}
\citation{Goldhaber2012}
\citation{Goodman2013}
\citation{bettinger2004}
\citation{Kane2008}
\citation{Woessmann2011}
\citation{Lavy2002}
\citation{Lavy2009}
\citation{Glewwe2010}
\citation{Muralidharan2011}
\citation{Balch2015}
\citation{Springer2011}
\citation{Goldhaber2012}
\citation{Goodman2013}
\citation{bettinger2004}
\citation{Kane2008}
\citation{Woessmann2011}
\citation{Lavy2002}
\citation{Lavy2009}
\citation{Glewwe2010}
\citation{Muralidharan2011}
\citation{Balch2015}
\citation{Springer2011}
\citation{Goldhaber2012}
\citation{Goodman2013}
\@writefile{nav}{\headcommand {\slideentry {1}{0}{1}{2/7}{}{0}}}
\@writefile{nav}{\headcommand {\beamer@framepages {2}{7}}}
\@writefile{nav}{\headcommand {\slideentry {1}{0}{2}{8/12}{}{0}}}
\@writefile{nav}{\headcommand {\beamer@framepages {8}{12}}}
\@writefile{toc}{\beamer@sectionintoc {2}{Interventions}{13}{0}{2}}
\@writefile{nav}{\headcommand {\sectionentry {2}{Interventions}{13}{Interventions}{0}}}
\@writefile{nav}{\headcommand {\beamer@sectionpages {2}{12}}}
\@writefile{nav}{\headcommand {\beamer@subsectionpages {2}{12}}}
\@writefile{nav}{\headcommand {\slideentry {2}{0}{1}{13/13}{}{0}}}
\@writefile{nav}{\headcommand {\beamer@framepages {13}{13}}}
\@writefile{nav}{\headcommand {\slideentry {2}{0}{2}{14/14}{}{0}}}
\@writefile{nav}{\headcommand {\beamer@framepages {14}{14}}}
\citation{Barlevy2012}
\@writefile{nav}{\headcommand {\slideentry {2}{0}{3}{15/15}{}{0}}}
\@writefile{nav}{\headcommand {\beamer@framepages {15}{15}}}
\@writefile{nav}{\headcommand {\slideentry {2}{0}{4}{16/16}{}{0}}}
\@writefile{nav}{\headcommand {\beamer@framepages {16}{16}}}
\@writefile{toc}{\beamer@sectionintoc {3}{Design, data and validity}{17}{0}{3}}
\@writefile{nav}{\headcommand {\sectionentry {3}{Design, data and validity}{17}{Design, data and validity}{0}}}
\@writefile{nav}{\headcommand {\beamer@sectionpages {13}{16}}}
\@writefile{nav}{\headcommand {\beamer@subsectionpages {13}{16}}}
\newlabel{fig:mapa}{{1}{17}{Design, data and validity}{Doc-Start}{}}
\@writefile{snm}{\beamer@slide {fig:mapa}{17}}
\@writefile{nav}{\headcommand {\slideentry {3}{0}{1}{17/17}{}{0}}}
\@writefile{nav}{\headcommand {\beamer@framepages {17}{17}}}
\newlabel{goback_design<1>}{{9}{18}{Design, data and validity}{Doc-Start}{}}
\@writefile{snm}{\beamer@slide {goback_design<1>}{18}}
\newlabel{goback_design}{{9}{18}{Design, data and validity}{Doc-Start}{}}
\@writefile{snm}{\beamer@slide {goback_design}{18}}
\@writefile{nav}{\headcommand {\slideentry {3}{0}{2}{18/18}{}{0}}}
\@writefile{nav}{\headcommand {\beamer@framepages {18}{18}}}
\newlabel{balance<1>}{{10}{19}{Design, data and validity}{Doc-Start}{}}
\@writefile{snm}{\beamer@slide {balance<1>}{19}}
\newlabel{balance}{{10}{19}{Design, data and validity}{Doc-Start}{}}
\@writefile{snm}{\beamer@slide {balance}{19}}
\@writefile{nav}{\headcommand {\slideentry {3}{0}{3}{19/19}{}{0}}}
\@writefile{nav}{\headcommand {\beamer@framepages {19}{19}}}
\@input{RegKarthik_Pooled.aux}
\@writefile{toc}{\beamer@sectionintoc {4}{Test score results}{20}{0}{4}}
\@writefile{nav}{\headcommand {\sectionentry {4}{Test score results}{20}{Test score results}{0}}}
\@writefile{nav}{\headcommand {\beamer@sectionpages {17}{19}}}
\@writefile{nav}{\headcommand {\beamer@subsectionpages {17}{19}}}
\@writefile{nav}{\headcommand {\slideentry {4}{0}{1}{20/20}{}{0}}}
\@writefile{nav}{\headcommand {\beamer@framepages {20}{20}}}
\@input{RegKarthik.aux}
\@writefile{nav}{\headcommand {\slideentry {4}{0}{2}{21/21}{}{0}}}
\@writefile{nav}{\headcommand {\beamer@framepages {21}{21}}}
\@input{RegKarthik_HHControls.aux}
\@writefile{nav}{\headcommand {\slideentry {4}{0}{3}{22/22}{}{0}}}
\@writefile{nav}{\headcommand {\beamer@framepages {22}{22}}}
\@input{RegKarthik_HHControls_EYOS.aux}
\@writefile{nav}{\headcommand {\slideentry {4}{0}{4}{23/23}{}{0}}}
\@writefile{nav}{\headcommand {\beamer@framepages {23}{23}}}
\@writefile{nav}{\headcommand {\slideentry {4}{0}{5}{24/24}{}{0}}}
\@writefile{nav}{\headcommand {\beamer@framepages {24}{24}}}
\@writefile{nav}{\headcommand {\slideentry {4}{0}{6}{25/25}{}{0}}}
\@writefile{nav}{\headcommand {\beamer@framepages {25}{25}}}
\@writefile{nav}{\headcommand {\slideentry {4}{0}{7}{26/26}{}{0}}}
\@writefile{nav}{\headcommand {\beamer@framepages {26}{26}}}
\@writefile{toc}{\beamer@sectionintoc {5}{So what happened? (i.e., Mechanisms)}{27}{0}{5}}
\@writefile{nav}{\headcommand {\sectionentry {5}{So what happened? (i.e., Mechanisms)}{27}{So what happened? (i.e., Mechanisms)}{0}}}
\@writefile{nav}{\headcommand {\beamer@sectionpages {20}{26}}}
\@writefile{nav}{\headcommand {\beamer@subsectionpages {20}{26}}}
\@writefile{nav}{\headcommand {\slideentry {5}{0}{1}{27/27}{}{0}}}
\@writefile{nav}{\headcommand {\beamer@framepages {27}{27}}}
\@writefile{nav}{\headcommand {\slideentry {5}{0}{2}{28/28}{}{0}}}
\@writefile{nav}{\headcommand {\beamer@framepages {28}{28}}}
\@writefile{nav}{\headcommand {\slideentry {5}{0}{3}{29/29}{}{0}}}
\@writefile{nav}{\headcommand {\beamer@framepages {29}{29}}}
\@writefile{nav}{\headcommand {\slideentry {5}{0}{4}{30/30}{}{0}}}
\@writefile{nav}{\headcommand {\beamer@framepages {30}{30}}}
\newlabel{comparison_yr1<1>}{{22}{31}{So what happened? (i.e., Mechanisms)}{Doc-Start}{}}
\@writefile{snm}{\beamer@slide {comparison_yr1<1>}{31}}
\newlabel{comparison_yr1}{{22}{31}{So what happened? (i.e., Mechanisms)}{Doc-Start}{}}
\@writefile{snm}{\beamer@slide {comparison_yr1}{31}}
\@writefile{nav}{\headcommand {\slideentry {5}{0}{5}{31/31}{}{0}}}
\@writefile{nav}{\headcommand {\beamer@framepages {31}{31}}}
\newlabel{comparison_yr2<1>}{{23}{32}{So what happened? (i.e., Mechanisms)}{Doc-Start}{}}
\@writefile{snm}{\beamer@slide {comparison_yr2<1>}{32}}
\newlabel{comparison_yr2}{{23}{32}{So what happened? (i.e., Mechanisms)}{Doc-Start}{}}
\@writefile{snm}{\beamer@slide {comparison_yr2}{32}}
\@writefile{nav}{\headcommand {\slideentry {5}{0}{6}{32/32}{}{0}}}
\@writefile{nav}{\headcommand {\beamer@framepages {32}{32}}}
\@input{RegTeacherAbs_Pooled.aux}
\@writefile{nav}{\headcommand {\slideentry {5}{0}{7}{33/33}{}{0}}}
\@writefile{nav}{\headcommand {\beamer@framepages {33}{33}}}
\@input{RegUnObs.aux}
\@writefile{nav}{\headcommand {\slideentry {5}{0}{8}{34/34}{}{0}}}
\@writefile{nav}{\headcommand {\beamer@framepages {34}{34}}}
\@input{RegObservationsIndex.aux}
\@writefile{nav}{\headcommand {\slideentry {5}{0}{9}{35/35}{}{0}}}
\@writefile{nav}{\headcommand {\beamer@framepages {35}{35}}}
\@input{RegBehavior_Student.aux}
\@writefile{nav}{\headcommand {\slideentry {5}{0}{10}{36/36}{}{0}}}
\@writefile{nav}{\headcommand {\beamer@framepages {36}{36}}}
\bibstyle{apacite}
\bibdata{TanBib}
\bibcite{Balch2015}{\citeauthoryear {Balch\ \BBA{} Springer}{Balch\ \BBA{} Springer}{{\APACyear {2015}}}}
\APACbibcite{Balch2015}{\citeauthoryear {Balch\ \BBA{} Springer}{Balch\ \BBA{} Springer}{{\APACyear {2015}}}}
\bibcite{Barlevy2012}{\citeauthoryear {Barlevy\ \BBA{} Neal}{Barlevy\ \BBA{} Neal}{{\APACyear {2012}}}}
\APACbibcite{Barlevy2012}{\citeauthoryear {Barlevy\ \BBA{} Neal}{Barlevy\ \BBA{} Neal}{{\APACyear {2012}}}}
\bibcite{bettinger2004}{\citeauthoryear {Bettinger\ \BBA{} Long}{Bettinger\ \BBA{} Long}{{\APACyear {2004}}}}
\APACbibcite{bettinger2004}{\citeauthoryear {Bettinger\ \BBA{} Long}{Bettinger\ \BBA{} Long}{{\APACyear {2004}}}}
\bibcite{Glewwe2010}{\citeauthoryear {Glewwe, Ilias,{}\ \BBA{} Kremer}{Glewwe\ \BOthers {.}}{{\APACyear {2010}}}}
\APACbibcite{Glewwe2010}{\citeauthoryear {Glewwe, Ilias,{}\ \BBA{} Kremer}{Glewwe\ \BOthers {.}}{{\APACyear {2010}}}}
\bibcite{Goldhaber2012}{\citeauthoryear {Goldhaber\ \BBA{} Walch}{Goldhaber\ \BBA{} Walch}{{\APACyear {2012}}}}
\APACbibcite{Goldhaber2012}{\citeauthoryear {Goldhaber\ \BBA{} Walch}{Goldhaber\ \BBA{} Walch}{{\APACyear {2012}}}}
\bibcite{Goodman2013}{\citeauthoryear {Goodman\ \BBA{} Turner}{Goodman\ \BBA{} Turner}{{\APACyear {2013}}}}
\APACbibcite{Goodman2013}{\citeauthoryear {Goodman\ \BBA{} Turner}{Goodman\ \BBA{} Turner}{{\APACyear {2013}}}}
\bibcite{Kane2008}{\citeauthoryear {Kane, Rockoff,{}\ \BBA{} Staiger}{Kane\ \BOthers {.}}{{\APACyear {2008}}}}
\APACbibcite{Kane2008}{\citeauthoryear {Kane, Rockoff,{}\ \BBA{} Staiger}{Kane\ \BOthers {.}}{{\APACyear {2008}}}}
\bibcite{Lavy2002}{\citeauthoryear {Lavy}{Lavy}{{\APACyear {2002}}}}
\APACbibcite{Lavy2002}{\citeauthoryear {Lavy}{Lavy}{{\APACyear {2002}}}}
\bibcite{Lavy2009}{\citeauthoryear {Lavy}{Lavy}{{\APACyear {2009}}}}
\APACbibcite{Lavy2009}{\citeauthoryear {Lavy}{Lavy}{{\APACyear {2009}}}}
\bibcite{Muralidharan2011}{\citeauthoryear {Muralidharan\ \BBA{} Sundararaman}{Muralidharan\ \BBA{} Sundararaman}{{\APACyear {2011}}}}
\APACbibcite{Muralidharan2011}{\citeauthoryear {Muralidharan\ \BBA{} Sundararaman}{Muralidharan\ \BBA{} Sundararaman}{{\APACyear {2011}}}}
\bibcite{Springer2011}{\citeauthoryear {Springer\ \BOthers {.}}{Springer\ \BOthers {.}}{{\APACyear {2011}}}}
\APACbibcite{Springer2011}{\citeauthoryear {Springer\ \BOthers {.}}{Springer\ \BOthers {.}}{{\APACyear {2011}}}}
\bibcite{Woessmann2011}{\citeauthoryear {Woessmann}{Woessmann}{{\APACyear {2011}}}}
\APACbibcite{Woessmann2011}{\citeauthoryear {Woessmann}{Woessmann}{{\APACyear {2011}}}}
\@writefile{toc}{\beamer@sectionintoc {6}{Extra slides}{37}{0}{6}}
\@writefile{nav}{\headcommand {\sectionentry {6}{Extra slides}{37}{Extra slides}{0}}}
\@writefile{nav}{\headcommand {\beamer@sectionpages {27}{36}}}
\@writefile{nav}{\headcommand {\beamer@subsectionpages {27}{36}}}
\@writefile{nav}{\headcommand {\sectionentry {7}{}{37}{}{0}}}
\@writefile{nav}{\headcommand {\beamer@sectionpages {37}{36}}}
\@writefile{nav}{\headcommand {\beamer@subsectionpages {37}{36}}}
\@writefile{toc}{\contentsline {section}{}}
\@writefile{nav}{\headcommand {\slideentry {7}{0}{0}{37/37}{}{0}}}
\@writefile{nav}{\headcommand {\beamer@framepages {37}{37}}}
\@writefile{nav}{\headcommand {\slideentry {7}{0}{0}{37/38}{}{0}}}
\@writefile{nav}{\headcommand {\beamer@framepages {37}{38}}}
\@writefile{nav}{\headcommand {\slideentry {7}{0}{0}{37/39}{}{0}}}
\@writefile{nav}{\headcommand {\beamer@framepages {37}{39}}}
\@writefile{nav}{\headcommand {\slideentry {7}{0}{0}{37/40}{}{0}}}
\@writefile{nav}{\headcommand {\beamer@framepages {37}{40}}}
\@writefile{nav}{\headcommand {\slideentry {7}{0}{0}{37/41}{}{0}}}
\@writefile{nav}{\headcommand {\beamer@framepages {37}{41}}}
\@writefile{nav}{\headcommand {\slideentry {7}{0}{0}{37/42}{}{0}}}
\@writefile{nav}{\headcommand {\beamer@framepages {37}{42}}}
\newlabel{TwaEDIYr1<1>}{{34}{43}{Extra slides}{Doc-Start}{}}
\@writefile{snm}{\beamer@slide {TwaEDIYr1<1>}{43}}
\newlabel{TwaEDIYr1}{{34}{43}{Extra slides}{Doc-Start}{}}
\@writefile{snm}{\beamer@slide {TwaEDIYr1}{43}}
\@writefile{nav}{\headcommand {\slideentry {7}{0}{1}{43/43}{}{0}}}
\@writefile{nav}{\headcommand {\beamer@framepages {43}{43}}}
\newlabel{TwaEDIYr2<1>}{{35}{44}{Extra slides}{Doc-Start}{}}
\@writefile{snm}{\beamer@slide {TwaEDIYr2<1>}{44}}
\newlabel{TwaEDIYr2}{{35}{44}{Extra slides}{Doc-Start}{}}
\@writefile{snm}{\beamer@slide {TwaEDIYr2}{44}}
\@writefile{nav}{\headcommand {\slideentry {7}{0}{2}{44/44}{}{0}}}
\@writefile{nav}{\headcommand {\beamer@framepages {44}{44}}}
\newlabel{balance_student<1>}{{36}{45}{Extra slides}{Doc-Start}{}}
\@writefile{snm}{\beamer@slide {balance_student<1>}{45}}
\newlabel{balance_student}{{36}{45}{Extra slides}{Doc-Start}{}}
\@writefile{snm}{\beamer@slide {balance_student}{45}}
\@writefile{nav}{\headcommand {\slideentry {7}{0}{3}{45/45}{}{0}}}
\@writefile{nav}{\headcommand {\beamer@framepages {45}{45}}}
\newlabel{balance_school<1>}{{37}{46}{Extra slides}{Doc-Start}{}}
\@writefile{snm}{\beamer@slide {balance_school<1>}{46}}
\newlabel{balance_school}{{37}{46}{Extra slides}{Doc-Start}{}}
\@writefile{snm}{\beamer@slide {balance_school}{46}}
\@writefile{nav}{\headcommand {\slideentry {7}{0}{4}{46/46}{}{0}}}
\@writefile{nav}{\headcommand {\beamer@framepages {46}{46}}}
\newlabel{balance_hh<1>}{{38}{47}{Extra slides}{Doc-Start}{}}
\@writefile{snm}{\beamer@slide {balance_hh<1>}{47}}
\newlabel{balance_hh}{{38}{47}{Extra slides}{Doc-Start}{}}
\@writefile{snm}{\beamer@slide {balance_hh}{47}}
\@writefile{nav}{\headcommand {\slideentry {7}{0}{5}{47/47}{}{0}}}
\@writefile{nav}{\headcommand {\beamer@framepages {47}{47}}}
\newlabel{balance_teacher<1>}{{39}{48}{Extra slides}{Doc-Start}{}}
\@writefile{snm}{\beamer@slide {balance_teacher<1>}{48}}
\newlabel{balance_teacher}{{39}{48}{Extra slides}{Doc-Start}{}}
\@writefile{snm}{\beamer@slide {balance_teacher}{48}}
\@writefile{nav}{\headcommand {\slideentry {7}{0}{6}{48/48}{}{0}}}
\@writefile{nav}{\headcommand {\beamer@framepages {48}{48}}}
\newlabel{attrition<1>}{{40}{49}{Extra slides}{Doc-Start}{}}
\@writefile{snm}{\beamer@slide {attrition<1>}{49}}
\newlabel{attrition}{{40}{49}{Extra slides}{Doc-Start}{}}
\@writefile{snm}{\beamer@slide {attrition}{49}}
\@writefile{nav}{\headcommand {\slideentry {7}{0}{7}{49/49}{}{0}}}
\@writefile{nav}{\headcommand {\beamer@framepages {49}{49}}}
\newlabel{trust<1>}{{41}{50}{Extra slides}{Doc-Start}{}}
\@writefile{snm}{\beamer@slide {trust<1>}{50}}
\newlabel{trust}{{41}{50}{Extra slides}{Doc-Start}{}}
\@writefile{snm}{\beamer@slide {trust}{50}}
\@writefile{nav}{\headcommand {\slideentry {7}{0}{8}{50/50}{}{0}}}
\@writefile{nav}{\headcommand {\beamer@framepages {50}{50}}}
\newlabel{previous_rct<1>}{{42}{51}{Extra slides}{Doc-Start}{}}
\@writefile{snm}{\beamer@slide {previous_rct<1>}{51}}
\newlabel{previous_rct}{{42}{51}{Extra slides}{Doc-Start}{}}
\@writefile{snm}{\beamer@slide {previous_rct}{51}}
\newlabel{tab:addlabel}{{2}{51}{Extra slides}{Doc-Start}{}}
\@writefile{snm}{\beamer@slide {tab:addlabel}{51}}
\@writefile{nav}{\headcommand {\slideentry {7}{0}{9}{51/51}{}{0}}}
\@writefile{nav}{\headcommand {\beamer@framepages {51}{51}}}
\@writefile{nav}{\headcommand {\beamer@partpages {1}{51}}}
\@writefile{nav}{\headcommand {\beamer@subsectionpages {37}{51}}}
\@writefile{nav}{\headcommand {\beamer@sectionpages {37}{51}}}
\@writefile{nav}{\headcommand {\beamer@documentpages {51}}}
\@writefile{nav}{\headcommand {\def \inserttotalframenumber {42}}}
