\relax 
\providecommand\hyper@newdestlabel[2]{}
\providecommand{\transparent@use}[1]{}
\providecommand\HyperFirstAtBeginDocument{\AtBeginDocument}
\HyperFirstAtBeginDocument{\ifx\hyper@anchor\@undefined
\global\let\oldcontentsline\contentsline
\gdef\contentsline#1#2#3#4{\oldcontentsline{#1}{#2}{#3}}
\global\let\oldnewlabel\newlabel
\gdef\newlabel#1#2{\newlabelxx{#1}#2}
\gdef\newlabelxx#1#2#3#4#5#6{\oldnewlabel{#1}{{#2}{#3}}}
\AtEndDocument{\ifx\hyper@anchor\@undefined
\let\contentsline\oldcontentsline
\let\newlabel\oldnewlabel
\fi}
\fi}
\global\let\hyper@last\relax 
\gdef\HyperFirstAtBeginDocument#1{#1}
\providecommand\HyField@AuxAddToFields[1]{}
\providecommand\HyField@AuxAddToCoFields[2]{}
\citation{Neal2010}
\citation{Barlevy2012}
\citation{Muralidharan2011}
\citation{Mbiti}
\citation{Barlevy2012}
\select@language{english}
\@writefile{toc}{\select@language{english}}
\@writefile{lof}{\select@language{english}}
\@writefile{lot}{\select@language{english}}
\@writefile{toc}{\contentsline {section}{\numberline {1}Introduction}{1}{section.1}}
\citation{Muralidharan2011}
\citation{Neal2010}
\citation{Mbiti}
\citation{Glewwe2010}
\citation{Lavy2002}
\citation{Lavy2009}
\citation{Muralidharan2011}
\citation{Balch2015}
\citation{Goldhaber2012}
\citation{Goodman2013}
\citation{Springer2011}
\citation{Muralidharan2011}
\citation{Goodman2013}
\citation{Barlevy2012}
\@writefile{toc}{\contentsline {section}{\numberline {2}Experimental Design}{3}{section.2}}
\@writefile{toc}{\contentsline {subsection}{\numberline {2.1}Sample Selection}{3}{subsection.2.1}}
\citation{Mbiti}
\@writefile{lot}{\contentsline {table}{\numberline {1}{\ignorespaces Treatment allocation}}{4}{table.1}}
\newlabel{tab:assignment}{{1}{4}{Treatment allocation}{table.1}{}}
\@writefile{toc}{\contentsline {subsection}{\numberline {2.2}Intervention}{4}{subsection.2.2}}
\@writefile{toc}{\contentsline {subsubsection}{\numberline {2.2.1}Levels}{4}{subsubsection.2.2.1}}
\citation{Mbiti}
\citation{Mbiti}
\@writefile{lot}{\contentsline {table}{\numberline {2}{\ignorespaces Skills tested in the ``levels'' design}}{5}{table.2}}
\newlabel{tab:skills}{{2}{5}{Skills tested in the ``levels'' design}{table.2}{}}
\citation{Barlevy2012}
\@writefile{toc}{\contentsline {subsubsection}{\numberline {2.2.2}Gains}{6}{subsubsection.2.2.2}}
\@writefile{toc}{\contentsline {subsection}{\numberline {2.3}Data and Balance}{7}{subsection.2.3}}
\@writefile{lot}{\contentsline {table}{\numberline {3}{\ignorespaces Balance between treatment arms: student and household characteristics }}{8}{table.3}}
\newlabel{tab:balance1}{{3}{8}{Balance between treatment arms: student and household characteristics}{table.3}{}}
\@writefile{lot}{\contentsline {table}{\numberline {4}{\ignorespaces Balance between treatment arms: school and teacher}}{9}{table.4}}
\newlabel{tab:balance2}{{4}{9}{Balance between treatment arms: school and teacher}{table.4}{}}
\@writefile{toc}{\contentsline {subsection}{\numberline {2.4}A Note on English}{10}{subsection.2.4}}
\@writefile{toc}{\contentsline {section}{\numberline {3}Hypotheses}{10}{section.3}}
\@writefile{toc}{\contentsline {section}{\numberline {4}Methodology}{11}{section.4}}
\@writefile{lot}{\contentsline {table}{\numberline {5}{\ignorespaces Control Variables}}{12}{table.5}}
\newlabel{tab:control}{{5}{12}{Control Variables}{table.5}{}}
\@writefile{toc}{\contentsline {subsection}{\numberline {4.1}Effect on test scores: H1, H2, and H3}{12}{subsection.4.1}}
\@writefile{toc}{\contentsline {subsection}{\numberline {4.2}Heterogeneity: H4}{13}{subsection.4.2}}
\@writefile{toc}{\contentsline {subsection}{\numberline {4.3}Effect on teachers: H5}{15}{subsection.4.3}}
\@writefile{lot}{\contentsline {table}{\numberline {6}{\ignorespaces Teacher outcomes}}{16}{table.6}}
\newlabel{tab:outcome_teacher}{{6}{16}{Teacher outcomes}{table.6}{}}
\@writefile{toc}{\contentsline {subsection}{\numberline {4.4}Effect on school: H6 and H7}{17}{subsection.4.4}}
\@writefile{lot}{\contentsline {table}{\numberline {7}{\ignorespaces School outcomes}}{17}{table.7}}
\newlabel{tab:out_school}{{7}{17}{School outcomes}{table.7}{}}
\@writefile{toc}{\contentsline {subsection}{\numberline {4.5}Other tests}{18}{subsection.4.5}}
\@writefile{toc}{\contentsline {subsubsection}{\numberline {4.5.1}Survey test vs intervention test}{18}{subsubsection.4.5.1}}
\@writefile{toc}{\contentsline {subsubsection}{\numberline {4.5.2}Effect on non-incentivized subjects and grades scores}{18}{subsubsection.4.5.2}}
\@writefile{toc}{\contentsline {subsubsection}{\numberline {4.5.3}Heterogeneous treatment effects by variance within a classroom}{18}{subsubsection.4.5.3}}
\@writefile{toc}{\contentsline {subsubsection}{\numberline {4.5.4}Heterogeneous treatment effects by student characteristics}{19}{subsubsection.4.5.4}}
\@writefile{toc}{\contentsline {subsubsection}{\numberline {4.5.5}Heterogeneous treatment effect by school characteristics}{19}{subsubsection.4.5.5}}
\bibstyle{apacite}
\bibdata{TanBib}
\@writefile{toc}{\contentsline {subsubsection}{\numberline {4.5.6}Heterogeneous treatment effects by teacher characteristics}{20}{subsubsection.4.5.6}}
\bibcite{Balch2015}{\citeauthoryear {Balch\ \BBA{} Springer}{Balch\ \BBA{} Springer}{{\APACyear {2015}}}}
\APACbibcite{Balch2015}{\citeauthoryear {Balch\ \BBA{} Springer}{Balch\ \BBA{} Springer}{{\APACyear {2015}}}}
\bibcite{Barlevy2012}{\citeauthoryear {Barlevy\ \BBA{} Neal}{Barlevy\ \BBA{} Neal}{{\APACyear {2012}}}}
\APACbibcite{Barlevy2012}{\citeauthoryear {Barlevy\ \BBA{} Neal}{Barlevy\ \BBA{} Neal}{{\APACyear {2012}}}}
\bibcite{Glewwe2010}{\citeauthoryear {Glewwe, Ilias,{}\ \BBA{} Kremer}{Glewwe\ \BOthers {.}}{{\APACyear {2010}}}}
\APACbibcite{Glewwe2010}{\citeauthoryear {Glewwe, Ilias,{}\ \BBA{} Kremer}{Glewwe\ \BOthers {.}}{{\APACyear {2010}}}}
\bibcite{Goldhaber2012}{\citeauthoryear {Goldhaber\ \BBA{} Walch}{Goldhaber\ \BBA{} Walch}{{\APACyear {2012}}}}
\APACbibcite{Goldhaber2012}{\citeauthoryear {Goldhaber\ \BBA{} Walch}{Goldhaber\ \BBA{} Walch}{{\APACyear {2012}}}}
\bibcite{Goodman2013}{\citeauthoryear {Goodman\ \BBA{} Turner}{Goodman\ \BBA{} Turner}{{\APACyear {2013}}}}
\APACbibcite{Goodman2013}{\citeauthoryear {Goodman\ \BBA{} Turner}{Goodman\ \BBA{} Turner}{{\APACyear {2013}}}}
\bibcite{Lavy2002}{\citeauthoryear {Lavy}{Lavy}{{\APACyear {2002}}}}
\APACbibcite{Lavy2002}{\citeauthoryear {Lavy}{Lavy}{{\APACyear {2002}}}}
\bibcite{Lavy2009}{\citeauthoryear {Lavy}{Lavy}{{\APACyear {2009}}}}
\APACbibcite{Lavy2009}{\citeauthoryear {Lavy}{Lavy}{{\APACyear {2009}}}}
\@writefile{toc}{\contentsline {subsubsection}{\numberline {4.5.7}Teacher Learning}{21}{subsubsection.4.5.7}}
\@writefile{toc}{\contentsline {section}{References}{21}{section*.1}}
\bibcite{Mbiti}{\citeauthoryear {Mbiti\ \BBA{} Muralidharan}{Mbiti\ \BBA{} Muralidharan}{{\APACyear {{\bibnodate {}}}}}}
\APACbibcite{Mbiti}{\citeauthoryear {Mbiti\ \BBA{} Muralidharan}{Mbiti\ \BBA{} Muralidharan}{{\APACyear {{\bibnodate {}}}}}}
\bibcite{Muralidharan2011}{\citeauthoryear {Muralidharan\ \BBA{} Sundararaman}{Muralidharan\ \BBA{} Sundararaman}{{\APACyear {2011}}}}
\APACbibcite{Muralidharan2011}{\citeauthoryear {Muralidharan\ \BBA{} Sundararaman}{Muralidharan\ \BBA{} Sundararaman}{{\APACyear {2011}}}}
\bibcite{Neal2010}{\citeauthoryear {Neal\ \BBA{} Schanzenbach}{Neal\ \BBA{} Schanzenbach}{{\APACyear {2010}}}}
\APACbibcite{Neal2010}{\citeauthoryear {Neal\ \BBA{} Schanzenbach}{Neal\ \BBA{} Schanzenbach}{{\APACyear {2010}}}}
\bibcite{Springer2011}{\citeauthoryear {Springer\ \BOthers {.}}{Springer\ \BOthers {.}}{{\APACyear {2011}}}}
\APACbibcite{Springer2011}{\citeauthoryear {Springer\ \BOthers {.}}{Springer\ \BOthers {.}}{{\APACyear {2011}}}}
\@writefile{toc}{\contentsline {section}{\numberline {A}Extra tables}{24}{appendix.A}}
\@writefile{lot}{\contentsline {table}{\numberline {8}{\ignorespaces Total amount of money available to teachers for each skill in each subject-grade combination}}{24}{table.8}}
\newlabel{tab:paymentlevels}{{8}{24}{Total amount of money available to teachers for each skill in each subject-grade combination}{table.8}{}}
\newlabel{sec:power}{{B}{25}{Power calculations that take into account the previous RCT treatment status}{appendix.B}{}}
\@writefile{toc}{\contentsline {section}{\numberline {B}Power calculations that take into account the previous RCT treatment status}{25}{appendix.B}}
\@writefile{lot}{\contentsline {table}{\numberline {9}{\ignorespaces Treatment effects}}{25}{table.9}}
\@writefile{lot}{\contentsline {table}{\numberline {10}{\ignorespaces Add caption}}{26}{table.10}}
\@writefile{lot}{\contentsline {table}{\numberline {11}{\ignorespaces Power Calculations}}{28}{table.11}}
\@writefile{lot}{\contentsline {table}{\numberline {12}{\ignorespaces Power Calculations}}{29}{table.12}}
