\relax 
\providecommand\hyper@newdestlabel[2]{}
\providecommand{\transparent@use}[1]{}
\providecommand\HyperFirstAtBeginDocument{\AtBeginDocument}
\HyperFirstAtBeginDocument{\ifx\hyper@anchor\@undefined
\global\let\oldcontentsline\contentsline
\gdef\contentsline#1#2#3#4{\oldcontentsline{#1}{#2}{#3}}
\global\let\oldnewlabel\newlabel
\gdef\newlabel#1#2{\newlabelxx{#1}#2}
\gdef\newlabelxx#1#2#3#4#5#6{\oldnewlabel{#1}{{#2}{#3}}}
\AtEndDocument{\ifx\hyper@anchor\@undefined
\let\contentsline\oldcontentsline
\let\newlabel\oldnewlabel
\fi}
\fi}
\global\let\hyper@last\relax 
\gdef\HyperFirstAtBeginDocument#1{#1}
\providecommand\HyField@AuxAddToFields[1]{}
\providecommand\HyField@AuxAddToCoFields[2]{}
\select@language{english}
\@writefile{toc}{\select@language{english}}
\@writefile{lof}{\select@language{english}}
\@writefile{lot}{\select@language{english}}
\@writefile{toc}{\contentsline {section}{\numberline {1}Key Points}{1}{section.1}}
\citation{Neal2010}
\citation{Barlevy2012}
\citation{Muralidharan2011}
\citation{Mbiti}
\citation{Barlevy2012}
\citation{Muralidharan2011}
\citation{Neal2010}
\citation{Mbiti}
\@writefile{toc}{\contentsline {section}{\numberline {2}Introduction}{3}{section.2}}
\citation{Glewwe2010}
\citation{Lavy2002}
\citation{Lavy2009}
\citation{Muralidharan2011}
\citation{Balch2015}
\citation{Goldhaber2012}
\citation{Goodman2013}
\citation{Springer2011}
\citation{Muralidharan2011}
\citation{Goodman2013}
\citation{Barlevy2012}
\citation{Mbiti}
\@writefile{toc}{\contentsline {section}{\numberline {3}Experimental Design}{5}{section.3}}
\@writefile{toc}{\contentsline {subsection}{\numberline {3.1}Sample Selection}{5}{subsection.3.1}}
\@writefile{lot}{\contentsline {table}{\numberline {1}{\ignorespaces Treatment allocation}}{6}{table.1}}
\newlabel{tab:assignment}{{1}{6}{Treatment allocation}{table.1}{}}
\@writefile{toc}{\contentsline {subsection}{\numberline {3.2}Intervention}{6}{subsection.3.2}}
\@writefile{toc}{\contentsline {subsubsection}{\numberline {3.2.1}Levels}{6}{subsubsection.3.2.1}}
\citation{Mbiti}
\citation{Mbiti}
\citation{Barlevy2012}
\@writefile{toc}{\contentsline {subsubsection}{\numberline {3.2.2}Gains}{7}{subsubsection.3.2.2}}
\@writefile{toc}{\contentsline {subsection}{\numberline {3.3}Data and Balance}{8}{subsection.3.3}}
\newlabel{tab:balance1}{{2}{10}{Balance between treatment arms: student and household characteristics}{table.2}{}}
\@writefile{lot}{\contentsline {table}{\numberline {2}{\ignorespaces Balance between treatment arms: student and household characteristics }}{10}{table.2}}
\newlabel{tab:balance2}{{3}{11}{Balance between treatment arms: school and teacher}{table.3}{}}
\@writefile{lot}{\contentsline {table}{\numberline {3}{\ignorespaces Balance between treatment arms: school and teacher}}{11}{table.3}}
\@input{RegKarthik_HHControls_EYOS.aux}
\@writefile{toc}{\contentsline {subsection}{\numberline {3.4}A Note on English}{12}{subsection.3.4}}
\@writefile{toc}{\contentsline {section}{\numberline {4}Results}{12}{section.4}}
\newlabel{tab:RegKarthik_HHControls_EYOS}{{4}{12}{Effect on test scores in EYOS}{table.4}{}}
\@writefile{lot}{\contentsline {table}{\numberline {4}{\ignorespaces Effect on test scores in EYOS}}{12}{table.4}}
\newlabel{fig:hetero_swa}{{1}{13}{Swahili test scores}{figure.1}{}}
\@writefile{lof}{\contentsline {figure}{\numberline {1}{\ignorespaces Swahili test scores}}{13}{figure.1}}
\newlabel{fig:hetero_math}{{2}{13}{Math test scores}{figure.2}{}}
\@writefile{lof}{\contentsline {figure}{\numberline {2}{\ignorespaces Math test scores}}{13}{figure.2}}
\@input{RegTeacherAbs_Pooled.aux}
\bibstyle{apacite}
\bibdata{TanBib}
\bibcite{Balch2015}{\citeauthoryear {Balch\ \BBA{} Springer}{Balch\ \BBA{} Springer}{{\APACyear {2015}}}}
\APACbibcite{Balch2015}{\citeauthoryear {Balch\ \BBA{} Springer}{Balch\ \BBA{} Springer}{{\APACyear {2015}}}}
\bibcite{Barlevy2012}{\citeauthoryear {Barlevy\ \BBA{} Neal}{Barlevy\ \BBA{} Neal}{{\APACyear {2012}}}}
\APACbibcite{Barlevy2012}{\citeauthoryear {Barlevy\ \BBA{} Neal}{Barlevy\ \BBA{} Neal}{{\APACyear {2012}}}}
\bibcite{Glewwe2010}{\citeauthoryear {Glewwe, Ilias,{}\ \BBA{} Kremer}{Glewwe\ \BOthers {.}}{{\APACyear {2010}}}}
\APACbibcite{Glewwe2010}{\citeauthoryear {Glewwe, Ilias,{}\ \BBA{} Kremer}{Glewwe\ \BOthers {.}}{{\APACyear {2010}}}}
\bibcite{Goldhaber2012}{\citeauthoryear {Goldhaber\ \BBA{} Walch}{Goldhaber\ \BBA{} Walch}{{\APACyear {2012}}}}
\APACbibcite{Goldhaber2012}{\citeauthoryear {Goldhaber\ \BBA{} Walch}{Goldhaber\ \BBA{} Walch}{{\APACyear {2012}}}}
\bibcite{Goodman2013}{\citeauthoryear {Goodman\ \BBA{} Turner}{Goodman\ \BBA{} Turner}{{\APACyear {2013}}}}
\APACbibcite{Goodman2013}{\citeauthoryear {Goodman\ \BBA{} Turner}{Goodman\ \BBA{} Turner}{{\APACyear {2013}}}}
\bibcite{Lavy2002}{\citeauthoryear {Lavy}{Lavy}{{\APACyear {2002}}}}
\APACbibcite{Lavy2002}{\citeauthoryear {Lavy}{Lavy}{{\APACyear {2002}}}}
\bibcite{Lavy2009}{\citeauthoryear {Lavy}{Lavy}{{\APACyear {2009}}}}
\APACbibcite{Lavy2009}{\citeauthoryear {Lavy}{Lavy}{{\APACyear {2009}}}}
\newlabel{tab:RegTeacherAbs_Pooled}{{5}{14}{Effect on teacher behavior}{table.5}{}}
\@writefile{lot}{\contentsline {table}{\numberline {5}{\ignorespaces Effect on teacher behavior}}{14}{table.5}}
\@writefile{toc}{\contentsline {section}{References}{14}{section*.1}}
\bibcite{Mbiti}{\citeauthoryear {Mbiti\ \BOthers {.}}{Mbiti\ \BOthers {.}}{{\APACyear {{\bibnodate {}}}}}}
\APACbibcite{Mbiti}{\citeauthoryear {Mbiti\ \BOthers {.}}{Mbiti\ \BOthers {.}}{{\APACyear {{\bibnodate {}}}}}}
\bibcite{Muralidharan2011}{\citeauthoryear {Muralidharan\ \BBA{} Sundararaman}{Muralidharan\ \BBA{} Sundararaman}{{\APACyear {2011}}}}
\APACbibcite{Muralidharan2011}{\citeauthoryear {Muralidharan\ \BBA{} Sundararaman}{Muralidharan\ \BBA{} Sundararaman}{{\APACyear {2011}}}}
\bibcite{Neal2010}{\citeauthoryear {Neal\ \BBA{} Schanzenbach}{Neal\ \BBA{} Schanzenbach}{{\APACyear {2010}}}}
\APACbibcite{Neal2010}{\citeauthoryear {Neal\ \BBA{} Schanzenbach}{Neal\ \BBA{} Schanzenbach}{{\APACyear {2010}}}}
\bibcite{Springer2011}{\citeauthoryear {Springer\ \BOthers {.}}{Springer\ \BOthers {.}}{{\APACyear {2011}}}}
\APACbibcite{Springer2011}{\citeauthoryear {Springer\ \BOthers {.}}{Springer\ \BOthers {.}}{{\APACyear {2011}}}}
\@input{RegKarthik_HHControls.aux}
\@writefile{toc}{\contentsline {section}{\numberline {A}Additional tables}{15}{appendix.A}}
\newlabel{tab:RegKarthik_HHControls}{{6}{15}{Effect on test scores in SD}{table.6}{}}
\@writefile{lot}{\contentsline {table}{\numberline {6}{\ignorespaces Effect on test scores in SD}}{15}{table.6}}
