\relax 
\providecommand\hyper@newdestlabel[2]{}
\providecommand{\transparent@use}[1]{}
\providecommand\HyperFirstAtBeginDocument{\AtBeginDocument}
\HyperFirstAtBeginDocument{\ifx\hyper@anchor\@undefined
\global\let\oldcontentsline\contentsline
\gdef\contentsline#1#2#3#4{\oldcontentsline{#1}{#2}{#3}}
\global\let\oldnewlabel\newlabel
\gdef\newlabel#1#2{\newlabelxx{#1}#2}
\gdef\newlabelxx#1#2#3#4#5#6{\oldnewlabel{#1}{{#2}{#3}}}
\AtEndDocument{\ifx\hyper@anchor\@undefined
\let\contentsline\oldcontentsline
\let\newlabel\oldnewlabel
\fi}
\fi}
\global\let\hyper@last\relax 
\gdef\HyperFirstAtBeginDocument#1{#1}
\providecommand\HyField@AuxAddToFields[1]{}
\providecommand\HyField@AuxAddToCoFields[2]{}
\citation{Uwezo2014}
\citation{Kremer2009}
\citation{BettingerForthcoming}
\citation{Kane2008}
\citation{Woessmann2011}
\citation{Glewwe2010}
\citation{Lavy2002}
\citation{Lavy2009}
\citation{Muralidharan2011}
\citation{Balch2015}
\citation{Goldhaber2012}
\citation{Goodman2013}
\citation{Springer2011}
\citation{Muralidharan2011}
\citation{Goodman2013}
\select@language{english}
\@writefile{toc}{\select@language{english}}
\@writefile{lof}{\select@language{english}}
\@writefile{lot}{\select@language{english}}
\@writefile{toc}{\contentsline {section}{\numberline {1}Introduction}{1}{section.1}}
\citation{Neal2010}
\citation{Barlevy2012}
\citation{Barlevy2012}
\citation{Uwezo2012}
\citation{Uwezo2012}
\citation{Uwezo2012}
\citation{Wolrd2011}
\citation{Glewwe2006}
\citation{Kremer2009}
\@writefile{toc}{\contentsline {section}{\numberline {2}Experimental Design}{3}{section.2}}
\@writefile{toc}{\contentsline {subsection}{\numberline {2.1}Context}{3}{subsection.2.1}}
\citation{Mbiti}
\citation{Mbiti}
\@writefile{toc}{\contentsline {subsection}{\numberline {2.2}Intervention}{4}{subsection.2.2}}
\@writefile{lot}{\contentsline {table}{\numberline {1}{\ignorespaces Skills tested in the ``levels'' design}}{4}{table.1}}
\newlabel{tab:skills}{{1}{4}{Skills tested in the ``levels'' design}{table.1}{}}
\citation{Barlevy2012}
\citation{Mbiti}
\citation{Mbiti}
\@writefile{toc}{\contentsline {subsection}{\numberline {2.3}Power calculations and sampling design}{6}{subsection.2.3}}
\@writefile{lof}{\contentsline {figure}{\numberline {1}{\ignorespaces Districts in Tanzania from which schools are selected}}{6}{figure.1}}
\newlabel{fig:mapa}{{1}{6}{Districts in Tanzania from which schools are selected}{figure.1}{}}
\@writefile{lof}{\contentsline {figure}{\numberline {2}{\ignorespaces MDE vs Power}}{7}{figure.2}}
\newlabel{fig:power}{{2}{7}{MDE vs Power}{figure.2}{}}
\@writefile{toc}{\contentsline {subsection}{\numberline {2.4}Data and balance}{7}{subsection.2.4}}
\@writefile{lot}{\contentsline {table}{\numberline {2}{\ignorespaces Balance between treatment arms: student and household characteristics }}{9}{table.2}}
\newlabel{tab:balance1}{{2}{9}{Balance between treatment arms: student and household characteristics}{table.2}{}}
\@writefile{lot}{\contentsline {table}{\numberline {3}{\ignorespaces Balance between treatment arms: school and teacher}}{10}{table.3}}
\newlabel{tab:balance2}{{3}{10}{Balance between treatment arms: school and teacher}{table.3}{}}
\bibstyle{apacite}
\bibdata{TanBib}
\bibcite{Balch2015}{\citeauthoryear {Balch\ \BBA{} Springer}{Balch\ \BBA{} Springer}{{\APACyear {2015}}}}
\APACbibcite{Balch2015}{\citeauthoryear {Balch\ \BBA{} Springer}{Balch\ \BBA{} Springer}{{\APACyear {2015}}}}
\bibcite{Barlevy2012}{\citeauthoryear {Barlevy\ \BBA{} Neal}{Barlevy\ \BBA{} Neal}{{\APACyear {2012}}}}
\APACbibcite{Barlevy2012}{\citeauthoryear {Barlevy\ \BBA{} Neal}{Barlevy\ \BBA{} Neal}{{\APACyear {2012}}}}
\bibcite{BettingerForthcoming}{\citeauthoryear {Bettinger}{Bettinger}{{\APACyear {{\BIP {}}}}}}
\APACbibcite{BettingerForthcoming}{\citeauthoryear {Bettinger}{Bettinger}{{\APACyear {{\BIP {}}}}}}
\bibcite{Glewwe2010}{\citeauthoryear {Glewwe, Ilias,{}\ \BBA{} Kremer}{Glewwe\ \BOthers {.}}{{\APACyear {2010}}}}
\APACbibcite{Glewwe2010}{\citeauthoryear {Glewwe, Ilias,{}\ \BBA{} Kremer}{Glewwe\ \BOthers {.}}{{\APACyear {2010}}}}
\bibcite{Glewwe2006}{\citeauthoryear {Glewwe\ \BBA{} Kremer}{Glewwe\ \BBA{} Kremer}{{\APACyear {2006}}}}
\APACbibcite{Glewwe2006}{\citeauthoryear {Glewwe\ \BBA{} Kremer}{Glewwe\ \BBA{} Kremer}{{\APACyear {2006}}}}
\bibcite{Goldhaber2012}{\citeauthoryear {Goldhaber\ \BBA{} Walch}{Goldhaber\ \BBA{} Walch}{{\APACyear {2012}}}}
\APACbibcite{Goldhaber2012}{\citeauthoryear {Goldhaber\ \BBA{} Walch}{Goldhaber\ \BBA{} Walch}{{\APACyear {2012}}}}
\bibcite{Goodman2013}{\citeauthoryear {Goodman\ \BBA{} Turner}{Goodman\ \BBA{} Turner}{{\APACyear {2013}}}}
\APACbibcite{Goodman2013}{\citeauthoryear {Goodman\ \BBA{} Turner}{Goodman\ \BBA{} Turner}{{\APACyear {2013}}}}
\bibcite{Kane2008}{\citeauthoryear {Kane, Rockoff,{}\ \BBA{} Staiger}{Kane\ \BOthers {.}}{{\APACyear {2008}}}}
\APACbibcite{Kane2008}{\citeauthoryear {Kane, Rockoff,{}\ \BBA{} Staiger}{Kane\ \BOthers {.}}{{\APACyear {2008}}}}
\bibcite{Kremer2009}{\citeauthoryear {Kremer\ \BBA{} Holla}{Kremer\ \BBA{} Holla}{{\APACyear {2009}}}}
\APACbibcite{Kremer2009}{\citeauthoryear {Kremer\ \BBA{} Holla}{Kremer\ \BBA{} Holla}{{\APACyear {2009}}}}
\bibcite{Lavy2002}{\citeauthoryear {Lavy}{Lavy}{{\APACyear {2002}}}}
\APACbibcite{Lavy2002}{\citeauthoryear {Lavy}{Lavy}{{\APACyear {2002}}}}
\bibcite{Lavy2009}{\citeauthoryear {Lavy}{Lavy}{{\APACyear {2009}}}}
\APACbibcite{Lavy2009}{\citeauthoryear {Lavy}{Lavy}{{\APACyear {2009}}}}
\@writefile{toc}{\contentsline {section}{References}{11}{section*.1}}
\bibcite{Mbiti}{\citeauthoryear {Mbiti\ \BBA{} Muralidharan}{Mbiti\ \BBA{} Muralidharan}{{\APACyear {{\bibnodate {}}}}}}
\APACbibcite{Mbiti}{\citeauthoryear {Mbiti\ \BBA{} Muralidharan}{Mbiti\ \BBA{} Muralidharan}{{\APACyear {{\bibnodate {}}}}}}
\bibcite{Muralidharan2011}{\citeauthoryear {Muralidharan\ \BBA{} Sundararaman}{Muralidharan\ \BBA{} Sundararaman}{{\APACyear {2011}}}}
\APACbibcite{Muralidharan2011}{\citeauthoryear {Muralidharan\ \BBA{} Sundararaman}{Muralidharan\ \BBA{} Sundararaman}{{\APACyear {2011}}}}
\bibcite{Neal2010}{\citeauthoryear {Neal\ \BBA{} Schanzenbach}{Neal\ \BBA{} Schanzenbach}{{\APACyear {2010}}}}
\APACbibcite{Neal2010}{\citeauthoryear {Neal\ \BBA{} Schanzenbach}{Neal\ \BBA{} Schanzenbach}{{\APACyear {2010}}}}
\bibcite{Springer2011}{\citeauthoryear {Springer\ \BOthers {.}}{Springer\ \BOthers {.}}{{\APACyear {2011}}}}
\APACbibcite{Springer2011}{\citeauthoryear {Springer\ \BOthers {.}}{Springer\ \BOthers {.}}{{\APACyear {2011}}}}
\bibcite{Uwezo2012}{\citeauthoryear {Uwezo}{Uwezo}{{\APACyear {2012}}}}
\APACbibcite{Uwezo2012}{\citeauthoryear {Uwezo}{Uwezo}{{\APACyear {2012}}}}
\bibcite{Uwezo2014}{\citeauthoryear {Uwezo}{Uwezo}{{\APACyear {2014}}}}
\APACbibcite{Uwezo2014}{\citeauthoryear {Uwezo}{Uwezo}{{\APACyear {2014}}}}
\bibcite{Woessmann2011}{\citeauthoryear {Woessmann}{Woessmann}{{\APACyear {2011}}}}
\APACbibcite{Woessmann2011}{\citeauthoryear {Woessmann}{Woessmann}{{\APACyear {2011}}}}
\bibcite{Wolrd2011}{\citeauthoryear {{Wolrd Bank}}{{Wolrd Bank}}{{\APACyear {2011}}}}
\APACbibcite{Wolrd2011}{\citeauthoryear {{Wolrd Bank}}{{Wolrd Bank}}{{\APACyear {2011}}}}
\@writefile{toc}{\contentsline {section}{\numberline {A}Extra tables}{14}{appendix.A}}
\@writefile{lot}{\contentsline {table}{\numberline {4}{\ignorespaces Total amount of money available to teachers for each skill in each subject-grade combination}}{14}{table.4}}
\newlabel{tab:paymentlevels}{{4}{14}{Total amount of money available to teachers for each skill in each subject-grade combination}{table.4}{}}
\newlabel{tab:addlabel}{{4}{14}{Total amount of money available to teachers for each skill in each subject-grade combination}{table.4}{}}
\newlabel{sec:power}{{B}{15}{Power calculations that take into account the previous RCT treatment status}{appendix.B}{}}
\@writefile{toc}{\contentsline {section}{\numberline {B}Power calculations that take into account the previous RCT treatment status}{15}{appendix.B}}
\@writefile{lot}{\contentsline {table}{\numberline {5}{\ignorespaces Add caption}}{15}{table.5}}
\newlabel{tab:addlabel}{{5}{15}{Add caption}{table.5}{}}
\@writefile{lot}{\contentsline {table}{\numberline {6}{\ignorespaces Add caption}}{15}{table.6}}
\newlabel{tab:addlabel}{{6}{15}{Add caption}{table.6}{}}
\@writefile{lot}{\contentsline {table}{\numberline {7}{\ignorespaces Add caption}}{16}{table.7}}
\newlabel{tab:addlabel}{{7}{16}{Add caption}{table.7}{}}
\@writefile{lot}{\contentsline {table}{\numberline {8}{\ignorespaces Add caption}}{19}{table.8}}
\newlabel{tab:addlabel}{{8}{19}{Add caption}{table.8}{}}
\@writefile{lot}{\contentsline {table}{\numberline {9}{\ignorespaces Add caption}}{19}{table.9}}
\newlabel{tab:addlabel}{{9}{19}{Add caption}{table.9}{}}
