\BOOKMARK [1][-]{section.1}{Introduction}{}% 1
\BOOKMARK [1][-]{section.2}{Experimental Design}{}% 2
\BOOKMARK [2][-]{subsection.2.1}{Context}{section.2}% 3
\BOOKMARK [2][-]{subsection.2.2}{Intervention}{section.2}% 4
\BOOKMARK [2][-]{subsection.2.3}{Power calculations and sampling design}{section.2}% 5
\BOOKMARK [2][-]{subsection.2.4}{Data and balance}{section.2}% 6
\BOOKMARK [1][-]{section*.1}{References}{}% 7
\BOOKMARK [1][-]{appendix.A}{Extra tables}{}% 8
\BOOKMARK [1][-]{appendix.B}{Power calculations that take into account the previous RCT treatment status}{}% 9
