\relax 
\providecommand\hyper@newdestlabel[2]{}
\@setckpt{RegKarthik_Pooled}{
\setcounter{page}{20}
\setcounter{equation}{1}
\setcounter{enumi}{0}
\setcounter{enumii}{0}
\setcounter{enumiii}{0}
\setcounter{enumiv}{0}
\setcounter{footnote}{0}
\setcounter{mpfootnote}{0}
\setcounter{beamerpauses}{1}
\setcounter{bookmark@seq@number}{4}
\setcounter{lecture}{0}
\setcounter{part}{0}
\setcounter{section}{4}
\setcounter{subsection}{0}
\setcounter{subsubsection}{0}
\setcounter{subsectionslide}{1}
\setcounter{framenumber}{11}
\setcounter{figure}{1}
\setcounter{table}{0}
\setcounter{parentequation}{0}
\setcounter{theorem}{0}
\setcounter{BibCnt}{0}
\setcounter{section@level}{0}
\setcounter{maskedRefs}{0}
}
