\relax 
\providecommand\hyper@newdestlabel[2]{}
\providecommand{\transparent@use}[1]{}
\@setckpt{RegKarthik_HHControls_EYOS}{
\setcounter{page}{12}
\setcounter{equation}{1}
\setcounter{enumi}{2}
\setcounter{enumii}{0}
\setcounter{enumiii}{0}
\setcounter{enumiv}{0}
\setcounter{footnote}{5}
\setcounter{mpfootnote}{0}
\setcounter{part}{0}
\setcounter{section}{4}
\setcounter{subsection}{0}
\setcounter{subsubsection}{0}
\setcounter{paragraph}{0}
\setcounter{subparagraph}{0}
\setcounter{figure}{0}
\setcounter{table}{4}
\setcounter{parentequation}{0}
\setcounter{Item}{2}
\setcounter{Hfootnote}{5}
\setcounter{bookmark@seq@number}{10}
\setcounter{section@level}{1}
\setcounter{r@tfl@t}{0}
\setcounter{BibCnt}{0}
\setcounter{float@type}{4}
\setcounter{FBl@b}{0}
\setcounter{FRobj}{0}
\setcounter{FRsobj}{0}
\setcounter{FBcnt}{0}
\setcounter{acknowledgement}{0}
\setcounter{algorithm}{0}
\setcounter{axiom}{0}
\setcounter{case}{0}
\setcounter{claim}{0}
\setcounter{conclusion}{0}
\setcounter{condition}{0}
\setcounter{conjecture}{0}
\setcounter{corollary}{0}
\setcounter{criterion}{0}
\setcounter{thm}{0}
\setcounter{definition}{0}
\setcounter{example}{0}
\setcounter{exercise}{0}
\setcounter{lemma}{0}
\setcounter{notation}{0}
\setcounter{problem}{0}
\setcounter{proposition}{0}
\setcounter{remark}{0}
\setcounter{solution}{0}
\setcounter{summary}{0}
\setcounter{maskedRefs}{0}
}
