\relax 
\providecommand\hyper@newdestlabel[2]{}
\providecommand\HyperFirstAtBeginDocument{\AtBeginDocument}
\HyperFirstAtBeginDocument{\ifx\hyper@anchor\@undefined
\global\let\oldcontentsline\contentsline
\gdef\contentsline#1#2#3#4{\oldcontentsline{#1}{#2}{#3}}
\global\let\oldnewlabel\newlabel
\gdef\newlabel#1#2{\newlabelxx{#1}#2}
\gdef\newlabelxx#1#2#3#4#5#6{\oldnewlabel{#1}{{#2}{#3}}}
\AtEndDocument{\ifx\hyper@anchor\@undefined
\let\contentsline\oldcontentsline
\let\newlabel\oldnewlabel
\fi}
\fi}
\global\let\hyper@last\relax 
\gdef\HyperFirstAtBeginDocument#1{#1}
\providecommand\HyField@AuxAddToFields[1]{}
\providecommand\HyField@AuxAddToCoFields[2]{}
\providecommand \oddpage@label [2]{}
\@writefile{toc}{\beamer@endinputifotherversion {3.26pt}}
\@writefile{nav}{\beamer@endinputifotherversion {3.26pt}}
\@writefile{nav}{\headcommand {\slideentry {0}{0}{1}{1/1}{}{0}}}
\@writefile{nav}{\headcommand {\beamer@framepages {1}{1}}}
\citation{Kremer2009}
\@writefile{nav}{\headcommand {\slideentry {0}{0}{2}{2/2}{}{0}}}
\@writefile{nav}{\headcommand {\beamer@framepages {2}{2}}}
\@writefile{nav}{\headcommand {\slideentry {0}{0}{3}{3/3}{}{0}}}
\@writefile{nav}{\headcommand {\beamer@framepages {3}{3}}}
\citation{BettingerForthcoming}
\citation{Kane2008}
\citation{Woessmann2011}
\citation{Glewwe2010}
\citation{Lavy2002}
\citation{Lavy2009}
\citation{Muralidharan2011}
\citation{Balch2015}
\citation{Goldhaber2012}
\citation{Goodman2013}
\citation{Springer2011}
\@writefile{nav}{\headcommand {\slideentry {0}{0}{4}{4/4}{}{0}}}
\@writefile{nav}{\headcommand {\beamer@framepages {4}{4}}}
\@writefile{nav}{\headcommand {\slideentry {0}{0}{5}{5/5}{}{0}}}
\@writefile{nav}{\headcommand {\beamer@framepages {5}{5}}}
\@writefile{nav}{\headcommand {\slideentry {0}{0}{6}{6/6}{}{0}}}
\@writefile{nav}{\headcommand {\beamer@framepages {6}{6}}}
\newlabel{tab:skills}{{1}{7}{}{Doc-Start}{}}
\@writefile{snm}{\beamer@slide {tab:skills}{7}}
\@writefile{nav}{\headcommand {\slideentry {0}{0}{7}{7/7}{}{0}}}
\@writefile{nav}{\headcommand {\beamer@framepages {7}{7}}}
\citation{Barlevy2012}
\@writefile{nav}{\headcommand {\slideentry {0}{0}{8}{8/8}{}{0}}}
\@writefile{nav}{\headcommand {\beamer@framepages {8}{8}}}
\@writefile{nav}{\headcommand {\slideentry {0}{0}{9}{9/9}{}{0}}}
\@writefile{nav}{\headcommand {\beamer@framepages {9}{9}}}
\@writefile{nav}{\headcommand {\slideentry {0}{0}{10}{10/10}{}{0}}}
\@writefile{nav}{\headcommand {\beamer@framepages {10}{10}}}
\newlabel{fig:mapa}{{2}{11}{}{Doc-Start}{}}
\@writefile{snm}{\beamer@slide {fig:mapa}{11}}
\@writefile{nav}{\headcommand {\slideentry {0}{0}{11}{11/11}{}{0}}}
\@writefile{nav}{\headcommand {\beamer@framepages {11}{11}}}
\citation{Mbiti}
\@writefile{nav}{\headcommand {\slideentry {0}{0}{12}{12/12}{}{0}}}
\@writefile{nav}{\headcommand {\beamer@framepages {12}{12}}}
\@writefile{nav}{\headcommand {\slideentry {0}{0}{13}{13/13}{}{0}}}
\@writefile{nav}{\headcommand {\beamer@framepages {13}{13}}}
\newlabel{fig:power}{{3}{14}{}{Doc-Start}{}}
\@writefile{snm}{\beamer@slide {fig:power}{14}}
\@writefile{nav}{\headcommand {\slideentry {0}{0}{14}{14/14}{}{0}}}
\@writefile{nav}{\headcommand {\beamer@framepages {14}{14}}}
\@writefile{nav}{\headcommand {\slideentry {0}{0}{15}{15/15}{}{0}}}
\@writefile{nav}{\headcommand {\beamer@framepages {15}{15}}}
\bibstyle{apacite}
\bibdata{TanBib}
\bibcite{Balch2015}{\citeauthoryear {Balch\ \BBA{} Springer}{Balch\ \BBA{} Springer}{{\APACyear {2015}}}}
\APACbibcite{Balch2015}{\citeauthoryear {Balch\ \BBA{} Springer}{Balch\ \BBA{} Springer}{{\APACyear {2015}}}}
\bibcite{Barlevy2012}{\citeauthoryear {Barlevy\ \BBA{} Neal}{Barlevy\ \BBA{} Neal}{{\APACyear {2012}}}}
\APACbibcite{Barlevy2012}{\citeauthoryear {Barlevy\ \BBA{} Neal}{Barlevy\ \BBA{} Neal}{{\APACyear {2012}}}}
\bibcite{BettingerForthcoming}{\citeauthoryear {Bettinger}{Bettinger}{{\APACyear {{\BIP {}}}}}}
\APACbibcite{BettingerForthcoming}{\citeauthoryear {Bettinger}{Bettinger}{{\APACyear {{\BIP {}}}}}}
\bibcite{Glewwe2010}{\citeauthoryear {Glewwe, Ilias,{}\ \BBA{} Kremer}{Glewwe\ \BOthers {.}}{{\APACyear {2010}}}}
\APACbibcite{Glewwe2010}{\citeauthoryear {Glewwe, Ilias,{}\ \BBA{} Kremer}{Glewwe\ \BOthers {.}}{{\APACyear {2010}}}}
\bibcite{Goldhaber2012}{\citeauthoryear {Goldhaber\ \BBA{} Walch}{Goldhaber\ \BBA{} Walch}{{\APACyear {2012}}}}
\APACbibcite{Goldhaber2012}{\citeauthoryear {Goldhaber\ \BBA{} Walch}{Goldhaber\ \BBA{} Walch}{{\APACyear {2012}}}}
\bibcite{Goodman2013}{\citeauthoryear {Goodman\ \BBA{} Turner}{Goodman\ \BBA{} Turner}{{\APACyear {2013}}}}
\APACbibcite{Goodman2013}{\citeauthoryear {Goodman\ \BBA{} Turner}{Goodman\ \BBA{} Turner}{{\APACyear {2013}}}}
\bibcite{Kane2008}{\citeauthoryear {Kane, Rockoff,{}\ \BBA{} Staiger}{Kane\ \BOthers {.}}{{\APACyear {2008}}}}
\APACbibcite{Kane2008}{\citeauthoryear {Kane, Rockoff,{}\ \BBA{} Staiger}{Kane\ \BOthers {.}}{{\APACyear {2008}}}}
\bibcite{Kremer2009}{\citeauthoryear {Kremer\ \BBA{} Holla}{Kremer\ \BBA{} Holla}{{\APACyear {2009}}}}
\APACbibcite{Kremer2009}{\citeauthoryear {Kremer\ \BBA{} Holla}{Kremer\ \BBA{} Holla}{{\APACyear {2009}}}}
\bibcite{Lavy2002}{\citeauthoryear {Lavy}{Lavy}{{\APACyear {2002}}}}
\APACbibcite{Lavy2002}{\citeauthoryear {Lavy}{Lavy}{{\APACyear {2002}}}}
\bibcite{Lavy2009}{\citeauthoryear {Lavy}{Lavy}{{\APACyear {2009}}}}
\APACbibcite{Lavy2009}{\citeauthoryear {Lavy}{Lavy}{{\APACyear {2009}}}}
\bibcite{Mbiti}{\citeauthoryear {Mbiti\ \BBA{} Muralidharan}{Mbiti\ \BBA{} Muralidharan}{{\APACyear {{\bibnodate {}}}}}}
\APACbibcite{Mbiti}{\citeauthoryear {Mbiti\ \BBA{} Muralidharan}{Mbiti\ \BBA{} Muralidharan}{{\APACyear {{\bibnodate {}}}}}}
\bibcite{Muralidharan2011}{\citeauthoryear {Muralidharan\ \BBA{} Sundararaman}{Muralidharan\ \BBA{} Sundararaman}{{\APACyear {2011}}}}
\APACbibcite{Muralidharan2011}{\citeauthoryear {Muralidharan\ \BBA{} Sundararaman}{Muralidharan\ \BBA{} Sundararaman}{{\APACyear {2011}}}}
\bibcite{Springer2011}{\citeauthoryear {Springer\ \BOthers {.}}{Springer\ \BOthers {.}}{{\APACyear {2011}}}}
\APACbibcite{Springer2011}{\citeauthoryear {Springer\ \BOthers {.}}{Springer\ \BOthers {.}}{{\APACyear {2011}}}}
\bibcite{Woessmann2011}{\citeauthoryear {Woessmann}{Woessmann}{{\APACyear {2011}}}}
\APACbibcite{Woessmann2011}{\citeauthoryear {Woessmann}{Woessmann}{{\APACyear {2011}}}}
\@writefile{nav}{\headcommand {\sectionentry {1}{}{16}{}{0}}}
\@writefile{nav}{\headcommand {\beamer@sectionpages {1}{15}}}
\@writefile{nav}{\headcommand {\beamer@subsectionpages {1}{15}}}
\@writefile{toc}{\contentsline {section}{}}
\@writefile{nav}{\headcommand {\slideentry {1}{0}{16}{16/16}{}{0}}}
\@writefile{nav}{\headcommand {\beamer@framepages {16}{16}}}
\@writefile{nav}{\headcommand {\slideentry {1}{0}{16}{16/17}{}{0}}}
\@writefile{nav}{\headcommand {\beamer@framepages {16}{17}}}
\@writefile{nav}{\headcommand {\slideentry {1}{0}{16}{16/18}{}{0}}}
\@writefile{nav}{\headcommand {\beamer@framepages {16}{18}}}
\@writefile{nav}{\headcommand {\slideentry {1}{0}{16}{16/19}{}{0}}}
\@writefile{nav}{\headcommand {\beamer@framepages {16}{19}}}
\@writefile{nav}{\headcommand {\slideentry {1}{0}{16}{16/20}{}{0}}}
\@writefile{nav}{\headcommand {\beamer@framepages {16}{20}}}
\@writefile{nav}{\headcommand {\slideentry {1}{0}{16}{16/21}{}{0}}}
\@writefile{nav}{\headcommand {\beamer@framepages {16}{21}}}
\newlabel{extrapower<1>}{{22}{22}{}{Doc-Start}{}}
\@writefile{snm}{\beamer@slide {extrapower<1>}{22}}
\newlabel{extrapower}{{22}{22}{}{Doc-Start}{}}
\@writefile{snm}{\beamer@slide {extrapower}{22}}
\newlabel{tab:addlabel}{{2}{22}{}{Doc-Start}{}}
\@writefile{snm}{\beamer@slide {tab:addlabel}{22}}
\@writefile{nav}{\headcommand {\slideentry {1}{0}{17}{22/22}{}{0}}}
\@writefile{nav}{\headcommand {\beamer@framepages {22}{22}}}
\@writefile{nav}{\headcommand {\beamer@partpages {1}{22}}}
\@writefile{nav}{\headcommand {\beamer@subsectionpages {1}{22}}}
\@writefile{nav}{\headcommand {\beamer@sectionpages {1}{22}}}
\@writefile{nav}{\headcommand {\beamer@documentpages {22}}}
\@writefile{nav}{\headcommand {\def \inserttotalframenumber {22}}}
